{
  "data": {
    "accommodationSummary": {
      "accommodationDetail": {
        "accommodationDealInformation": {
          "name": "Hotel Liabeny",
          "address": "Calle de la Salud 3",
          "cityName": "Madrid",
          "description": "<p><b>Property Location</b> <br />With a stay at Hotel Liabeny in Madrid (Madrid Centro), you'll be steps from Puerta del Sol and 2 minutes by foot from Gran Via Street.  This 4-star hotel is 0.4 mi (0.7 km) from Plaza Mayor and 0.7 mi (1 km) from Thyssen-Bornemisza National Museum.</p><p><b>Rooms</b> <br />Stay in one of 220 guestrooms featuring LCD televisions. Complimentary wireless Internet access keeps you connected, and digital programming is available for your entertainment. Private bathrooms with bathtubs or showers feature complimentary toiletries and bidets. Conveniences include phones, as well as laptop-compatible safes and desks.</p><p><b>Amenities</b> <br />Take advantage of recreation opportunities such as a fitness center, or other amenities including complimentary wireless Internet access and concierge services.</p><p><b>Dining</b> <br />You can enjoy a meal at Sensaciones serving the guests of Hotel Liabeny, or stop in at the snack bar/deli. Quench your thirst with your favorite drink at the bar/lounge. Cooked-to-order breakfasts are available daily from 7:30 AM to 10:30 AM for a fee.</p><p><b>Business, Other Amenities</b> <br />Featured amenities include a 24-hour business center, complimentary newspapers in the lobby, and dry cleaning/laundry services. Planning an event in Madrid? This hotel has facilities measuring 538 square feet (50 square meters), including a meeting room. Self parking (subject to charges) is available onsite.</p>",
          "location": null,
          "chain": null,
          "type": null,
          "mainAccommodationImage": {
            "url": "https://www.edreams.com/pictures/05tguutt6r3y/1000000/600000/598800/598707/1acd4622_z.jpg",
            "thumbnailUrl": "https://www.edreams.com/pictures/1zvzutxvg4wr/1000000/600000/598800/598707/1acd4622_t.jpg",
            "type": "GENERAL",
            "quality": "MEDIUM"
          },
          "cancellationPolicyDescription": null,
          "coordinates": {
            "latitude": 40.41864,
            "longitude": -3.70395
          },
          "category": "STARS_4",
          "cancellationFree": null,
          "paymentAtDestination": false
        },
        "stateProvince": null,
        "country": "ES",
        "postalCode": "28013",
        "mapUrls": [],
        "locationDescription": null,
        "surroundingAreaInfo": "Distances are displayed to the nearest 0.1 mile and kilometer. <br /> <p>Puerta del Sol - 0.2 km / 0.1 mi <br /> Gran Via Street - 0.2 km / 0.1 mi <br /> Plaza de Callao - 0.3 km / 0.2 mi <br /> Casino Gran Via - 0.4 km / 0.2 mi <br /> Teatro Lara - 0.5 km / 0.3 mi <br /> Teatro Rialto - 0.5 km / 0.3 mi <br /> Casino de Madrid - 0.5 km / 0.3 mi <br /> Lope de Vega Theatre - 0.6 km / 0.4 mi <br /> Plaza del Angel - 0.6 km / 0.4 mi <br /> Plaza de Santa Ana - 0.6 km / 0.4 mi <br /> Plaza Mayor - 0.7 km / 0.4 mi <br /> Teatro Espanol - 0.7 km / 0.4 mi <br /> Royal Theatre - 0.7 km / 0.5 mi <br /> Mercado de San Miguel - 0.7 km / 0.5 mi <br /> Circulo de Bellas Artes - 0.8 km / 0.5 mi <br /> </p><p>The nearest major airport is Adolfo Suarez Madrid-Barajas Airport (MAD) - 15.5 km / 9.6 mi</p>",
        "checkInPolicy": "3:00 PM",
        "checkOutPolicy": "12:00 PM",
        "hotelPolicy": "<p><b>Special check in instructions</b> <br />Front desk staff will greet guests on arrival.</p> <p><b>Check in instructions</b> <br /><ul>  <li>Extra-person charges may apply and vary depending on property policy</li><li>Government-issued photo identification and a credit card, debit card, or cash deposit may be required at check-in for incidental charges</li><li>Special requests are subject to availability upon check-in and may incur additional charges; special requests cannot be guaranteed</li><li>This property accepts credit cards; cash is not accepted</li><li>Safety features at this property include a fire extinguisher, a smoke detector, a security system, a first aid kit, and window guards</li>  </ul></p> <p><b>Know Before You Go</b> <br /><ul>  <li>Cash transactions at this property cannot exceed EUR 2500, due to national regulations. For further details, please contact the property using information in the booking confirmation. </li><li>This property advises that enhanced cleaning and guest safety measures are currently in place.</li><li>Disinfectant is used to clean the property; commonly-touched surfaces are cleaned with disinfectant between stays; bed sheets and towels are laundered at a temperature of at least 60°C/140°F.</li><li>Personal protective equipment, including masks, will be available to guests.</li><li>Social distancing measures are in place; staff at the property wear personal protective equipment; a shield is in place between staff and guests in main contact areas; periodic temperature checks are conducted on staff; guests are provided with hand sanitizer.</li><li>Each guestroom is kept vacant for a minimum of 24 hours between bookings.</li><li>This property affirms that it follows the cleaning and disinfection practices of Safe Tourism Certified (Spain).</li> </ul></p> <p><b>Fees</b> <br /><p>The following fees and deposits are charged by the property at time of service, check-in, or check-out. </p> <ul> <li>Fee for cooked-to-order breakfast: EUR 13 per person (approximately)</li>       <li>Self parking fee: EUR 24 per day</li>                       </ul> <p>The above list may not be comprehensive. Fees and deposits may not include tax and are subject to change. </p></p>",
        "creditCardTypes": [
          "R",
          "VI",
          "S",
          "T",
          "E",
          "AX",
          "TO",
          "L",
          "N",
          "CA",
          "O",
          "DC"
        ],
        "paymentMethod": null,
        "phoneNumber": null,
        "mail": null,
        "web": null,
        "fax": null,
        "accommodationImages": [
          {
            "url": "https://www.edreams.com/pictures/05tguutt6r3y/1000000/600000/598800/598707/1acd4622_z.jpg",
            "thumbnailUrl": "https://www.edreams.com/pictures/1zvzutxvg4wr/1000000/600000/598800/598707/1acd4622_t.jpg",
            "type": "GENERAL",
            "quality": "MEDIUM"
          },
          {
            "url": "https://www.edreams.com/pictures/00lxwvzz33a2/1000000/600000/598800/598707/f46f1378_z.jpg",
            "thumbnailUrl": "https://www.edreams.com/pictures/511svztu132r/1000000/600000/598800/598707/f46f1378_t.jpg",
            "type": "ROOM",
            "quality": "MEDIUM"
          },
          {
            "url": "https://www.edreams.com/pictures/05c4uvvt2kbp/1000000/600000/598800/598707/21aa318b_b.jpg",
            "thumbnailUrl": "https://www.edreams.com/pictures/b0r7wuzwokz7/1000000/600000/598800/598707/21aa318b_t.jpg",
            "type": "ROOM",
            "quality": "LOW"
          },
          {
            "url": "https://www.edreams.com/pictures/0kfqvzuvq25u/1000000/600000/598800/598707/1c1a143e_b.jpg",
            "thumbnailUrl": "https://www.edreams.com/pictures/l9tnwwvwd541/1000000/600000/598800/598707/1c1a143e_t.jpg",
            "type": "GENERAL",
            "quality": "LOW"
          },
          {
            "url": "https://www.edreams.com/pictures/0n3gyvvv60f2/1000000/600000/598800/598707/d302500c_z.jpg",
            "thumbnailUrl": "https://www.edreams.com/pictures/rv0nyuzu8d0d/1000000/600000/598800/598707/d302500c_t.jpg",
            "type": "ROOM",
            "quality": "MEDIUM"
          },
          {
            "url": "https://www.edreams.com/pictures/0x8ktwvt8gvq/1000000/600000/598800/598707/dbc1349c_z.jpg",
            "thumbnailUrl": "https://www.edreams.com/pictures/9g56xxuwv37l/1000000/600000/598800/598707/dbc1349c_t.jpg",
            "type": "GENERAL",
            "quality": "MEDIUM"
          },
          {
            "url": "https://www.edreams.com/pictures/193awuwxlvl9/1000000/600000/598800/598707/56251a18_z.jpg",
            "thumbnailUrl": "https://www.edreams.com/pictures/6mx2yzwtriva/1000000/600000/598800/598707/56251a18_t.jpg",
            "type": "ROOM",
            "quality": "MEDIUM"
          },
          {
            "url": "https://www.edreams.com/pictures/197dxvtzsrn0/1000000/600000/598800/598707/ddd71f47_z.jpg",
            "thumbnailUrl": "https://www.edreams.com/pictures/hfpmyvvx41c1/1000000/600000/598800/598707/ddd71f47_t.jpg",
            "type": "HOTEL",
            "quality": "MEDIUM"
          },
          {
            "url": "https://www.edreams.com/pictures/1c26yuxy70w0/1000000/600000/598800/598707/2b52177e_z.jpg",
            "thumbnailUrl": "https://www.edreams.com/pictures/8765xtyw9izb/1000000/600000/598800/598707/2b52177e_t.jpg",
            "type": "GENERAL",
            "quality": "MEDIUM"
          },
          {
            "url": "https://www.edreams.com/pictures/1c88wywy8m1o/1000000/600000/598800/598707/ef0e1eb9_b.jpg",
            "thumbnailUrl": "https://www.edreams.com/pictures/5nffwvyw0155/1000000/600000/598800/598707/ef0e1eb9_t.jpg",
            "type": "HOTEL",
            "quality": "LOW"
          },
          {
            "url": "https://www.edreams.com/pictures/2582utwyv3i8/1000000/600000/598800/598707/58b4d058_z.jpg",
            "thumbnailUrl": "https://www.edreams.com/pictures/gkt9wuxwb18g/1000000/600000/598800/598707/58b4d058_t.jpg",
            "type": "ROOM",
            "quality": "MEDIUM"
          },
          {
            "url": "https://www.edreams.com/pictures/2735yvuz291x/1000000/600000/598800/598707/f22abada_z.jpg",
            "thumbnailUrl": "https://www.edreams.com/pictures/fu56twtzw42w/1000000/600000/598800/598707/f22abada_t.jpg",
            "type": "GENERAL",
            "quality": "MEDIUM"
          },
          {
            "url": "https://www.edreams.com/pictures/2tz6vuxzdnph/1000000/600000/598800/598707/a385b378_z.jpg",
            "thumbnailUrl": "https://www.edreams.com/pictures/a53futyy2z73/1000000/600000/598800/598707/a385b378_t.jpg",
            "type": "ROOM",
            "quality": "MEDIUM"
          },
          {
            "url": "https://www.edreams.com/pictures/2zo5tzut7f6l/1000000/600000/598800/598707/707e09ab_b.jpg",
            "thumbnailUrl": "https://www.edreams.com/pictures/zx9zxwuv1036/1000000/600000/598800/598707/707e09ab_t.jpg",
            "type": "GENERAL",
            "quality": "LOW"
          },
          {
            "url": "https://www.edreams.com/pictures/36y3txzv85x9/1000000/600000/598800/598707/70373156_b.jpg",
            "thumbnailUrl": "https://www.edreams.com/pictures/0e66yvyzv290/1000000/600000/598800/598707/70373156_t.jpg",
            "type": "GENERAL",
            "quality": "LOW"
          },
          {
            "url": "https://www.edreams.com/pictures/3j2fwvzto61j/1000000/600000/598800/598707/707e09ab_z.jpg",
            "thumbnailUrl": "https://www.edreams.com/pictures/1m2lzzzuex1o/1000000/600000/598800/598707/707e09ab_t.jpg",
            "type": "GENERAL",
            "quality": "MEDIUM"
          },
          {
            "url": "https://www.edreams.com/pictures/3ot2uzuz826p/1000000/600000/598800/598707/68db3926_b.jpg",
            "thumbnailUrl": "https://www.edreams.com/pictures/ab8axvuy87t3/1000000/600000/598800/598707/68db3926_t.jpg",
            "type": "ROOM",
            "quality": "LOW"
          },
          {
            "url": "https://www.edreams.com/pictures/4226vzuy4v17/1000000/600000/598800/598707/1d4f34fc_b.jpg",
            "thumbnailUrl": "https://www.edreams.com/pictures/v6eawyuuklvv/1000000/600000/598800/598707/1d4f34fc_t.jpg",
            "type": "ROOM",
            "quality": "LOW"
          },
          {
            "url": "https://www.edreams.com/pictures/42q1tvzuwn75/1000000/600000/598800/598707/7bf798c0_b.jpg",
            "thumbnailUrl": "https://www.edreams.com/pictures/v497uxxx5j8t/1000000/600000/598800/598707/7bf798c0_t.jpg",
            "type": "ROOM",
            "quality": "LOW"
          },
          {
            "url": "https://www.edreams.com/pictures/44u6vwwu8k54/1000000/600000/598800/598707/667c94be_z.jpg",
            "thumbnailUrl": "https://www.edreams.com/pictures/6t26zwtv6gi2/1000000/600000/598800/598707/667c94be_t.jpg",
            "type": "ROOM",
            "quality": "MEDIUM"
          },
          {
            "url": "https://www.edreams.com/pictures/456owuyt567z/1000000/600000/598800/598707/d302500c_b.jpg",
            "thumbnailUrl": "https://www.edreams.com/pictures/3rshvtzv976u/1000000/600000/598800/598707/d302500c_t.jpg",
            "type": "ROOM",
            "quality": "LOW"
          },
          {
            "url": "https://www.edreams.com/pictures/4ca6uvuud34u/1000000/600000/598800/598707/90e61e3e_b.jpg",
            "thumbnailUrl": "https://www.edreams.com/pictures/345mtzww4mm2/1000000/600000/598800/598707/90e61e3e_t.jpg",
            "type": "GENERAL",
            "quality": "LOW"
          },
          {
            "url": "https://www.edreams.com/pictures/4l73vvvz349q/1000000/600000/598800/598707/d1fe0b96_z.jpg",
            "thumbnailUrl": "https://www.edreams.com/pictures/5jvcwxyx299g/1000000/600000/598800/598707/d1fe0b96_t.jpg",
            "type": "GENERAL",
            "quality": "MEDIUM"
          },
          {
            "url": "https://www.edreams.com/pictures/4nskuuwt7b58/1000000/600000/598800/598707/f94b5825_z.jpg",
            "thumbnailUrl": "https://www.edreams.com/pictures/djk0uuvwaxm4/1000000/600000/598800/598707/f94b5825_t.jpg",
            "type": "ROOM",
            "quality": "MEDIUM"
          },
          {
            "url": "https://www.edreams.com/pictures/4pr7ytyvvhqk/1000000/600000/598800/598707/78ce2bd4_b.jpg",
            "thumbnailUrl": "https://www.edreams.com/pictures/8ow0yvtvxi4g/1000000/600000/598800/598707/78ce2bd4_t.jpg",
            "type": "HOTEL",
            "quality": "LOW"
          },
          {
            "url": "https://www.edreams.com/pictures/4xw1zzztd8fu/1000000/600000/598800/598707/30948a06_b.jpg",
            "thumbnailUrl": "https://www.edreams.com/pictures/j1hzxyztn2wj/1000000/600000/598800/598707/30948a06_t.jpg",
            "type": "ROOM",
            "quality": "LOW"
          },
          {
            "url": "https://www.edreams.com/pictures/52i0uyvt8c94/1000000/600000/598800/598707/edea3d17_b.jpg",
            "thumbnailUrl": "https://www.edreams.com/pictures/2z0yzuvuaamp/1000000/600000/598800/598707/edea3d17_t.jpg",
            "type": "HOTEL",
            "quality": "LOW"
          },
          {
            "url": "https://www.edreams.com/pictures/5au6uyzvx0n9/1000000/600000/598800/598707/667c94be_b.jpg",
            "thumbnailUrl": "https://www.edreams.com/pictures/6r20ztzvlh8u/1000000/600000/598800/598707/667c94be_t.jpg",
            "type": "ROOM",
            "quality": "LOW"
          },
          {
            "url": "https://www.edreams.com/pictures/5c28vzvy4xt9/1000000/600000/598800/598707/d33b8b32_b.jpg",
            "thumbnailUrl": "https://www.edreams.com/pictures/1o9gwxxw1y72/1000000/600000/598800/598707/d33b8b32_t.jpg",
            "type": "ROOM",
            "quality": "LOW"
          },
          {
            "url": "https://www.edreams.com/pictures/5q9aztvu44pi/1000000/600000/598800/598707/bd2da493_b.jpg",
            "thumbnailUrl": "https://www.edreams.com/pictures/e73ltutt15r6/1000000/600000/598800/598707/bd2da493_t.jpg",
            "type": "ROOM",
            "quality": "LOW"
          },
          {
            "url": "https://www.edreams.com/pictures/5qlzttwt9xb0/1000000/600000/598800/598707/ed930bb0_z.jpg",
            "thumbnailUrl": "https://www.edreams.com/pictures/692awuzv44zk/1000000/600000/598800/598707/ed930bb0_t.jpg",
            "type": "ROOM",
            "quality": "MEDIUM"
          },
          {
            "url": "https://www.edreams.com/pictures/5y2vzxvzgffi/1000000/600000/598800/598707/e66f1c24_z.jpg",
            "thumbnailUrl": "https://www.edreams.com/pictures/djljxwyu71dh/1000000/600000/598800/598707/e66f1c24_t.jpg",
            "type": "GENERAL",
            "quality": "MEDIUM"
          },
          {
            "url": "https://www.edreams.com/pictures/6360xvtyb8m3/1000000/600000/598800/598707/680393bc_b.jpg",
            "thumbnailUrl": "https://www.edreams.com/pictures/98bcxzvw0106/1000000/600000/598800/598707/680393bc_t.jpg",
            "type": "ROOM",
            "quality": "LOW"
          },
          {
            "url": "https://www.edreams.com/pictures/64krwxtylf1a/1000000/600000/598800/598707/ef555f10_b.jpg",
            "thumbnailUrl": "https://www.edreams.com/pictures/eq89vxxzplp8/1000000/600000/598800/598707/ef555f10_t.jpg",
            "type": "HOTEL",
            "quality": "LOW"
          },
          {
            "url": "https://www.edreams.com/pictures/67x0zxvzh58k/1000000/600000/598800/598707/a38afcb5_b.jpg",
            "thumbnailUrl": "https://www.edreams.com/pictures/7xtjzxty0n46/1000000/600000/598800/598707/a38afcb5_t.jpg",
            "type": "ROOM",
            "quality": "LOW"
          },
          {
            "url": "https://www.edreams.com/pictures/6aebvtwxd74j/1000000/600000/598800/598707/15ac9a6e_b.jpg",
            "thumbnailUrl": "https://www.edreams.com/pictures/twfsvuuz5j41/1000000/600000/598800/598707/15ac9a6e_t.jpg",
            "type": "GENERAL",
            "quality": "LOW"
          },
          {
            "url": "https://www.edreams.com/pictures/7981uyuzeh29/1000000/600000/598800/598707/f46f1378_b.jpg",
            "thumbnailUrl": "https://www.edreams.com/pictures/xyp0zxtwx7h0/1000000/600000/598800/598707/f46f1378_t.jpg",
            "type": "ROOM",
            "quality": "LOW"
          },
          {
            "url": "https://www.edreams.com/pictures/7j9atvyuva84/1000000/600000/598800/598707/7123826e_z.jpg",
            "thumbnailUrl": "https://www.edreams.com/pictures/40ckzxuu498p/1000000/600000/598800/598707/7123826e_t.jpg",
            "type": "ROOM",
            "quality": "MEDIUM"
          },
          {
            "url": "https://www.edreams.com/pictures/7zfdvuut79yk/1000000/600000/598800/598707/7123826e_b.jpg",
            "thumbnailUrl": "https://www.edreams.com/pictures/82d1tywzct13/1000000/600000/598800/598707/7123826e_t.jpg",
            "type": "ROOM",
            "quality": "LOW"
          },
          {
            "url": "https://www.edreams.com/pictures/819xyzvz4bl8/1000000/600000/598800/598707/680393bc_z.jpg",
            "thumbnailUrl": "https://www.edreams.com/pictures/o6yitxzxz7j6/1000000/600000/598800/598707/680393bc_t.jpg",
            "type": "ROOM",
            "quality": "MEDIUM"
          },
          {
            "url": "https://www.edreams.com/pictures/848izwtz48v1/1000000/600000/598800/598707/07442b30_z.jpg",
            "thumbnailUrl": "https://www.edreams.com/pictures/9068txuy173i/1000000/600000/598800/598707/07442b30_t.jpg",
            "type": "ROOM",
            "quality": "MEDIUM"
          },
          {
            "url": "https://www.edreams.com/pictures/85i3wuxx841t/1000000/600000/598800/598707/ef146f59_b.jpg",
            "thumbnailUrl": "https://www.edreams.com/pictures/7f0axwuy48j6/1000000/600000/598800/598707/ef146f59_t.jpg",
            "type": "GENERAL",
            "quality": "LOW"
          },
          {
            "url": "https://www.edreams.com/pictures/8f3hxwwvb8hy/1000000/600000/598800/598707/6731a47e_b.jpg",
            "thumbnailUrl": "https://www.edreams.com/pictures/6v7zxwzw937d/1000000/600000/598800/598707/6731a47e_t.jpg",
            "type": "ROOM",
            "quality": "LOW"
          },
          {
            "url": "https://www.edreams.com/pictures/8ke7xyyxdg7i/1000000/600000/598800/598707/07442b30_b.jpg",
            "thumbnailUrl": "https://www.edreams.com/pictures/zbrdzzwx94j4/1000000/600000/598800/598707/07442b30_t.jpg",
            "type": "ROOM",
            "quality": "LOW"
          },
          {
            "url": "https://www.edreams.com/pictures/8xc1ttxx7751/1000000/600000/598800/598707/126df36a_z.jpg",
            "thumbnailUrl": "https://www.edreams.com/pictures/4rzmyztt351b/1000000/600000/598800/598707/126df36a_t.jpg",
            "type": "HOTEL",
            "quality": "MEDIUM"
          },
          {
            "url": "https://www.edreams.com/pictures/8xdwtvtyhfs4/1000000/600000/598800/598707/7bf798c0_z.jpg",
            "thumbnailUrl": "https://www.edreams.com/pictures/zck9zzzz363p/1000000/600000/598800/598707/7bf798c0_t.jpg",
            "type": "ROOM",
            "quality": "MEDIUM"
          },
          {
            "url": "https://www.edreams.com/pictures/93u4vwyukq1r/1000000/600000/598800/598707/537a3938_b.jpg",
            "thumbnailUrl": "https://www.edreams.com/pictures/et6mywxw7y1y/1000000/600000/598800/598707/537a3938_t.jpg",
            "type": "ROOM",
            "quality": "LOW"
          },
          {
            "url": "https://www.edreams.com/pictures/947itxxuwm8k/1000000/600000/598800/598707/1c1a143e_z.jpg",
            "thumbnailUrl": "https://www.edreams.com/pictures/48p0utuws62j/1000000/600000/598800/598707/1c1a143e_t.jpg",
            "type": "GENERAL",
            "quality": "MEDIUM"
          },
          {
            "url": "https://www.edreams.com/pictures/95m1vzwvoz55/1000000/600000/598800/598707/537a3938_z.jpg",
            "thumbnailUrl": "https://www.edreams.com/pictures/0391uvvw5m15/1000000/600000/598800/598707/537a3938_t.jpg",
            "type": "ROOM",
            "quality": "MEDIUM"
          },
          {
            "url": "https://www.edreams.com/pictures/9m98xytzs646/1000000/600000/598800/598707/4336058c_z.jpg",
            "thumbnailUrl": "https://www.edreams.com/pictures/r1v0wvyxmp3i/1000000/600000/598800/598707/4336058c_t.jpg",
            "type": "ROOM",
            "quality": "MEDIUM"
          },
          {
            "url": "https://www.edreams.com/pictures/9n60wvwu9qg9/1000000/600000/598800/598707/126df36a_b.jpg",
            "thumbnailUrl": "https://www.edreams.com/pictures/6o8butuy5l59/1000000/600000/598800/598707/126df36a_t.jpg",
            "type": "HOTEL",
            "quality": "LOW"
          },
          {
            "url": "https://www.edreams.com/pictures/a31yvzwxv15i/1000000/600000/598800/598707/0685fdca_b.jpg",
            "thumbnailUrl": "https://www.edreams.com/pictures/k2swtuuzi4uy/1000000/600000/598800/598707/0685fdca_t.jpg",
            "type": "HOTEL",
            "quality": "LOW"
          },
          {
            "url": "https://www.edreams.com/pictures/a5v4vwtvf2t1/1000000/600000/598800/598707/b6c7d605_z.jpg",
            "thumbnailUrl": "https://www.edreams.com/pictures/xhmjtxzt67iv/1000000/600000/598800/598707/b6c7d605_t.jpg",
            "type": "ROOM",
            "quality": "MEDIUM"
          },
          {
            "url": "https://www.edreams.com/pictures/aq82ttvyrfb8/1000000/600000/598800/598707/f94b5825_b.jpg",
            "thumbnailUrl": "https://www.edreams.com/pictures/64xsvwvwl3u7/1000000/600000/598800/598707/f94b5825_t.jpg",
            "type": "ROOM",
            "quality": "LOW"
          },
          {
            "url": "https://www.edreams.com/pictures/axy1zuyz3a91/1000000/600000/598800/598707/15ac9a6e_z.jpg",
            "thumbnailUrl": "https://www.edreams.com/pictures/4jk3utytab6d/1000000/600000/598800/598707/15ac9a6e_t.jpg",
            "type": "GENERAL",
            "quality": "MEDIUM"
          },
          {
            "url": "https://www.edreams.com/pictures/b0p1yyuz72y4/1000000/600000/598800/598707/f22abada_b.jpg",
            "thumbnailUrl": "https://www.edreams.com/pictures/6l2nzztu32wm/1000000/600000/598800/598707/f22abada_t.jpg",
            "type": "GENERAL",
            "quality": "LOW"
          },
          {
            "url": "https://www.edreams.com/pictures/b837utwv6f44/1000000/600000/598800/598707/2b26c3f3_z.jpg",
            "thumbnailUrl": "https://www.edreams.com/pictures/t9hayyvv8577/1000000/600000/598800/598707/2b26c3f3_t.jpg",
            "type": "GENERAL",
            "quality": "MEDIUM"
          },
          {
            "url": "https://www.edreams.com/pictures/c558ttvz28a8/1000000/600000/598800/598707/95846f6a_z.jpg",
            "thumbnailUrl": "https://www.edreams.com/pictures/0927uvtz8d6e/1000000/600000/598800/598707/95846f6a_t.jpg",
            "type": "GENERAL",
            "quality": "MEDIUM"
          },
          {
            "url": "https://www.edreams.com/pictures/c9cjvwxyybbr/1000000/600000/598800/598707/49358804_z.jpg",
            "thumbnailUrl": "https://www.edreams.com/pictures/6oawtxvxn9wz/1000000/600000/598800/598707/49358804_t.jpg",
            "type": "HOTEL",
            "quality": "MEDIUM"
          },
          {
            "url": "https://www.edreams.com/pictures/d334zvvy6vkv/1000000/600000/598800/598707/4336058c_b.jpg",
            "thumbnailUrl": "https://www.edreams.com/pictures/37q9vtxx1w7i/1000000/600000/598800/598707/4336058c_t.jpg",
            "type": "ROOM",
            "quality": "LOW"
          },
          {
            "url": "https://www.edreams.com/pictures/d958uuzxgv92/1000000/600000/598800/598707/48f4b036_b.jpg",
            "thumbnailUrl": "https://www.edreams.com/pictures/w4j0xzxz6055/1000000/600000/598800/598707/48f4b036_t.jpg",
            "type": "ROOM",
            "quality": "LOW"
          },
          {
            "url": "https://www.edreams.com/pictures/dfjeuzvz76rs/1000000/600000/598800/598707/2b9f5be5_b.jpg",
            "thumbnailUrl": "https://www.edreams.com/pictures/rx0tvyvw8t7m/1000000/600000/598800/598707/2b9f5be5_t.jpg",
            "type": "HOTEL",
            "quality": "LOW"
          },
          {
            "url": "https://www.edreams.com/pictures/e2hzwvyu4ptj/1000000/600000/598800/598707/83b3a680_z.jpg",
            "thumbnailUrl": "https://www.edreams.com/pictures/h125txwwftjm/1000000/600000/598800/598707/83b3a680_t.jpg",
            "type": "ROOM",
            "quality": "MEDIUM"
          },
          {
            "url": "https://www.edreams.com/pictures/e570utyy5ui1/1000000/600000/598800/598707/af100c9f_z.jpg",
            "thumbnailUrl": "https://www.edreams.com/pictures/j7w7tzwyzy1n/1000000/600000/598800/598707/af100c9f_t.jpg",
            "type": "HOTEL",
            "quality": "MEDIUM"
          },
          {
            "url": "https://www.edreams.com/pictures/e81gtyzy2xgq/1000000/600000/598800/598707/ddd71f47_b.jpg",
            "thumbnailUrl": "https://www.edreams.com/pictures/4p1myuzz6142/1000000/600000/598800/598707/ddd71f47_t.jpg",
            "type": "HOTEL",
            "quality": "LOW"
          },
          {
            "url": "https://www.edreams.com/pictures/ej29wzzt2qjs/1000000/600000/598800/598707/b863cc78_b.jpg",
            "thumbnailUrl": "https://www.edreams.com/pictures/2of8vtuu9y8b/1000000/600000/598800/598707/b863cc78_t.jpg",
            "type": "GENERAL",
            "quality": "LOW"
          },
          {
            "url": "https://www.edreams.com/pictures/ex4ovxtxc3ak/1000000/600000/598800/598707/70373156_z.jpg",
            "thumbnailUrl": "https://www.edreams.com/pictures/7ed9wzxt8258/1000000/600000/598800/598707/70373156_t.jpg",
            "type": "GENERAL",
            "quality": "MEDIUM"
          },
          {
            "url": "https://www.edreams.com/pictures/f1wqywwu7g8a/1000000/600000/598800/598707/a38afcb5_z.jpg",
            "thumbnailUrl": "https://www.edreams.com/pictures/2025vwvvu07p/1000000/600000/598800/598707/a38afcb5_t.jpg",
            "type": "ROOM",
            "quality": "MEDIUM"
          },
          {
            "url": "https://www.edreams.com/pictures/fg2pvyzw1e3p/1000000/600000/598800/598707/e66f1c24_b.jpg",
            "thumbnailUrl": "https://www.edreams.com/pictures/a8oeyvtyczvi/1000000/600000/598800/598707/e66f1c24_t.jpg",
            "type": "GENERAL",
            "quality": "LOW"
          },
          {
            "url": "https://www.edreams.com/pictures/g29ztytvra9u/1000000/600000/598800/598707/2400ca34_z.jpg",
            "thumbnailUrl": "https://www.edreams.com/pictures/s362tvzz1g08/1000000/600000/598800/598707/2400ca34_t.jpg",
            "type": "GENERAL",
            "quality": "MEDIUM"
          },
          {
            "url": "https://www.edreams.com/pictures/g75dwzwx233f/1000000/600000/598800/598707/ef146f59_z.jpg",
            "thumbnailUrl": "https://www.edreams.com/pictures/z41ovvwt3l9o/1000000/600000/598800/598707/ef146f59_t.jpg",
            "type": "GENERAL",
            "quality": "MEDIUM"
          },
          {
            "url": "https://www.edreams.com/pictures/hbz5uxyuts5z/1000000/600000/598800/598707/2b9f5be5_z.jpg",
            "thumbnailUrl": "https://www.edreams.com/pictures/q16dtvwx5mp6/1000000/600000/598800/598707/2b9f5be5_t.jpg",
            "type": "HOTEL",
            "quality": "MEDIUM"
          },
          {
            "url": "https://www.edreams.com/pictures/i69zywvye0dz/1000000/600000/598800/598707/edea3d17_z.jpg",
            "thumbnailUrl": "https://www.edreams.com/pictures/p84duxvyrlb0/1000000/600000/598800/598707/edea3d17_t.jpg",
            "type": "HOTEL",
            "quality": "MEDIUM"
          },
          {
            "url": "https://www.edreams.com/pictures/icm6zwyv5bu0/1000000/600000/598800/598707/44fc44c2_z.jpg",
            "thumbnailUrl": "https://www.edreams.com/pictures/65w7zyuuz270/1000000/600000/598800/598707/44fc44c2_t.jpg",
            "type": "ROOM",
            "quality": "MEDIUM"
          },
          {
            "url": "https://www.edreams.com/pictures/j40ltyuz0861/1000000/600000/598800/598707/95846f6a_b.jpg",
            "thumbnailUrl": "https://www.edreams.com/pictures/057jzwtvnnov/1000000/600000/598800/598707/95846f6a_t.jpg",
            "type": "GENERAL",
            "quality": "LOW"
          },
          {
            "url": "https://www.edreams.com/pictures/j5z5tuzziio4/1000000/600000/598800/598707/21aa318b_z.jpg",
            "thumbnailUrl": "https://www.edreams.com/pictures/6d99xyuziu0i/1000000/600000/598800/598707/21aa318b_t.jpg",
            "type": "ROOM",
            "quality": "MEDIUM"
          },
          {
            "url": "https://www.edreams.com/pictures/jek8zvuzs1oc/1000000/600000/598800/598707/1d4f34fc_z.jpg",
            "thumbnailUrl": "https://www.edreams.com/pictures/uw75vztyqwoy/1000000/600000/598800/598707/1d4f34fc_t.jpg",
            "type": "ROOM",
            "quality": "MEDIUM"
          },
          {
            "url": "https://www.edreams.com/pictures/k7u8zwuvd7g2/1000000/600000/598800/598707/2400ca34_b.jpg",
            "thumbnailUrl": "https://www.edreams.com/pictures/o02zytzw1ynv/1000000/600000/598800/598707/2400ca34_t.jpg",
            "type": "GENERAL",
            "quality": "LOW"
          },
          {
            "url": "https://www.edreams.com/pictures/l63lyvvzkfq6/1000000/600000/598800/598707/0685fdca_z.jpg",
            "thumbnailUrl": "https://www.edreams.com/pictures/wyfztyut37g5/1000000/600000/598800/598707/0685fdca_t.jpg",
            "type": "HOTEL",
            "quality": "MEDIUM"
          },
          {
            "url": "https://www.edreams.com/pictures/l7i4vzwy8kop/1000000/600000/598800/598707/f78421fa_z.jpg",
            "thumbnailUrl": "https://www.edreams.com/pictures/t4mrvyuyaxc7/1000000/600000/598800/598707/f78421fa_t.jpg",
            "type": "GENERAL",
            "quality": "MEDIUM"
          },
          {
            "url": "https://www.edreams.com/pictures/lqofvuut83jx/1000000/600000/598800/598707/af100c9f_b.jpg",
            "thumbnailUrl": "https://www.edreams.com/pictures/559ywywylq77/1000000/600000/598800/598707/af100c9f_t.jpg",
            "type": "HOTEL",
            "quality": "LOW"
          },
          {
            "url": "https://www.edreams.com/pictures/mdfozwyw8101/1000000/600000/598800/598707/a385b378_b.jpg",
            "thumbnailUrl": "https://www.edreams.com/pictures/261itvwx4a09/1000000/600000/598800/598707/a385b378_t.jpg",
            "type": "ROOM",
            "quality": "LOW"
          },
          {
            "url": "https://www.edreams.com/pictures/mg0zzttv3o5k/1000000/600000/598800/598707/f96f9d89_b.jpg",
            "thumbnailUrl": "https://www.edreams.com/pictures/u98luxvx3ld9/1000000/600000/598800/598707/f96f9d89_t.jpg",
            "type": "GENERAL",
            "quality": "LOW"
          },
          {
            "url": "https://www.edreams.com/pictures/mi1mvuwv99ns/1000000/600000/598800/598707/bd2da493_z.jpg",
            "thumbnailUrl": "https://www.edreams.com/pictures/4w08ytwz5209/1000000/600000/598800/598707/bd2da493_t.jpg",
            "type": "ROOM",
            "quality": "MEDIUM"
          },
          {
            "url": "https://www.edreams.com/pictures/mm70zxzx97mo/1000000/600000/598800/598707/6731a47e_z.jpg",
            "thumbnailUrl": "https://www.edreams.com/pictures/9583uwwu918p/1000000/600000/598800/598707/6731a47e_t.jpg",
            "type": "ROOM",
            "quality": "MEDIUM"
          },
          {
            "url": "https://www.edreams.com/pictures/mxd2txxug8bz/1000000/600000/598800/598707/49358804_b.jpg",
            "thumbnailUrl": "https://www.edreams.com/pictures/plewtzyvykla/1000000/600000/598800/598707/49358804_t.jpg",
            "type": "HOTEL",
            "quality": "LOW"
          },
          {
            "url": "https://www.edreams.com/pictures/n85twuwwr2b2/1000000/600000/598800/598707/b6c7d605_b.jpg",
            "thumbnailUrl": "https://www.edreams.com/pictures/348xxuxxbtzf/1000000/600000/598800/598707/b6c7d605_t.jpg",
            "type": "ROOM",
            "quality": "LOW"
          },
          {
            "url": "https://www.edreams.com/pictures/n8j2zwvz3h18/1000000/600000/598800/598707/56251a18_b.jpg",
            "thumbnailUrl": "https://www.edreams.com/pictures/6927zyyzgw86/1000000/600000/598800/598707/56251a18_t.jpg",
            "type": "ROOM",
            "quality": "LOW"
          },
          {
            "url": "https://www.edreams.com/pictures/nx66xuwt26q8/1000000/600000/598800/598707/ed930bb0_b.jpg",
            "thumbnailUrl": "https://www.edreams.com/pictures/2kvcxzuxi95v/1000000/600000/598800/598707/ed930bb0_t.jpg",
            "type": "ROOM",
            "quality": "LOW"
          },
          {
            "url": "https://www.edreams.com/pictures/o2v1ttyy57hp/1000000/600000/598800/598707/a2dcdf31_z.jpg",
            "thumbnailUrl": "https://www.edreams.com/pictures/s8w2tytu3d1n/1000000/600000/598800/598707/a2dcdf31_t.jpg",
            "type": "HOTEL",
            "quality": "MEDIUM"
          },
          {
            "url": "https://www.edreams.com/pictures/oc44uvvzj79w/1000000/600000/598800/598707/b863cc78_z.jpg",
            "thumbnailUrl": "https://www.edreams.com/pictures/7bicwyux6m50/1000000/600000/598800/598707/b863cc78_t.jpg",
            "type": "GENERAL",
            "quality": "MEDIUM"
          },
          {
            "url": "https://www.edreams.com/pictures/oosltuvt34a4/1000000/600000/598800/598707/2b52177e_b.jpg",
            "thumbnailUrl": "https://www.edreams.com/pictures/7sl3xyzu7iro/1000000/600000/598800/598707/2b52177e_t.jpg",
            "type": "GENERAL",
            "quality": "LOW"
          },
          {
            "url": "https://www.edreams.com/pictures/p1wftwwtv7cz/1000000/600000/598800/598707/d33b8b32_z.jpg",
            "thumbnailUrl": "https://www.edreams.com/pictures/1e88wvuxx6rf/1000000/600000/598800/598707/d33b8b32_t.jpg",
            "type": "ROOM",
            "quality": "MEDIUM"
          },
          {
            "url": "https://www.edreams.com/pictures/px12yxzx88mk/1000000/600000/598800/598707/d1fe0b96_b.jpg",
            "thumbnailUrl": "https://www.edreams.com/pictures/20htuwww9it4/1000000/600000/598800/598707/d1fe0b96_t.jpg",
            "type": "GENERAL",
            "quality": "LOW"
          },
          {
            "url": "https://www.edreams.com/pictures/qbgbwxxw9094/1000000/600000/598800/598707/acd053b6_b.jpg",
            "thumbnailUrl": "https://www.edreams.com/pictures/06jztxwwex15/1000000/600000/598800/598707/acd053b6_t.jpg",
            "type": "ROOM",
            "quality": "LOW"
          },
          {
            "url": "https://www.edreams.com/pictures/r3mxwvuy123i/1000000/600000/598800/598707/98603d83_z.jpg",
            "thumbnailUrl": "https://www.edreams.com/pictures/53afzxxvhk6n/1000000/600000/598800/598707/98603d83_t.jpg",
            "type": "ROOM",
            "quality": "MEDIUM"
          },
          {
            "url": "https://www.edreams.com/pictures/r88bvwuwpc2k/1000000/600000/598800/598707/2b26c3f3_b.jpg",
            "thumbnailUrl": "https://www.edreams.com/pictures/djf6yvzt36nq/1000000/600000/598800/598707/2b26c3f3_t.jpg",
            "type": "GENERAL",
            "quality": "LOW"
          },
          {
            "url": "https://www.edreams.com/pictures/ro64zxyt7493/1000000/600000/598800/598707/0c8aa959_b.jpg",
            "thumbnailUrl": "https://www.edreams.com/pictures/b6n8zytw7y6s/1000000/600000/598800/598707/0c8aa959_t.jpg",
            "type": "GENERAL",
            "quality": "LOW"
          },
          {
            "url": "https://www.edreams.com/pictures/rxo3txuxmade/1000000/600000/598800/598707/98603d83_b.jpg",
            "thumbnailUrl": "https://www.edreams.com/pictures/snp8wxyxelr3/1000000/600000/598800/598707/98603d83_t.jpg",
            "type": "ROOM",
            "quality": "LOW"
          },
          {
            "url": "https://www.edreams.com/pictures/sbfntyyz6i5x/1000000/600000/598800/598707/f96f9d89_z.jpg",
            "thumbnailUrl": "https://www.edreams.com/pictures/883yuztu0v5v/1000000/600000/598800/598707/f96f9d89_t.jpg",
            "type": "GENERAL",
            "quality": "MEDIUM"
          },
          {
            "url": "https://www.edreams.com/pictures/smnoztzxmayq/1000000/600000/598800/598707/58b4d058_b.jpg",
            "thumbnailUrl": "https://www.edreams.com/pictures/f3dsutzyb36s/1000000/600000/598800/598707/58b4d058_t.jpg",
            "type": "ROOM",
            "quality": "LOW"
          },
          {
            "url": "https://www.edreams.com/pictures/t32suzxyi55a/1000000/600000/598800/598707/68db3926_z.jpg",
            "thumbnailUrl": "https://www.edreams.com/pictures/is68vzuw4fr1/1000000/600000/598800/598707/68db3926_t.jpg",
            "type": "ROOM",
            "quality": "MEDIUM"
          },
          {
            "url": "https://www.edreams.com/pictures/ts5zwtwu3f9g/1000000/600000/598800/598707/dbc1349c_b.jpg",
            "thumbnailUrl": "https://www.edreams.com/pictures/7461zywv095j/1000000/600000/598800/598707/dbc1349c_t.jpg",
            "type": "GENERAL",
            "quality": "LOW"
          },
          {
            "url": "https://www.edreams.com/pictures/ty39tvwtgn5g/1000000/600000/598800/598707/44fc44c2_b.jpg",
            "thumbnailUrl": "https://www.edreams.com/pictures/0q8ywyttqpaq/1000000/600000/598800/598707/44fc44c2_t.jpg",
            "type": "ROOM",
            "quality": "LOW"
          },
          {
            "url": "https://www.edreams.com/pictures/u0zgwyzwmsqg/1000000/600000/598800/598707/30948a06_z.jpg",
            "thumbnailUrl": "https://www.edreams.com/pictures/117pywztd8k1/1000000/600000/598800/598707/30948a06_t.jpg",
            "type": "ROOM",
            "quality": "MEDIUM"
          },
          {
            "url": "https://www.edreams.com/pictures/ufzyvvzv46ii/1000000/600000/598800/598707/83b3a680_b.jpg",
            "thumbnailUrl": "https://www.edreams.com/pictures/xez4wxwyg6fe/1000000/600000/598800/598707/83b3a680_t.jpg",
            "type": "ROOM",
            "quality": "LOW"
          },
          {
            "url": "https://www.edreams.com/pictures/v23tzvuyf2b8/1000000/600000/598800/598707/78ce2bd4_z.jpg",
            "thumbnailUrl": "https://www.edreams.com/pictures/9pb8vwtu5r43/1000000/600000/598800/598707/78ce2bd4_t.jpg",
            "type": "HOTEL",
            "quality": "MEDIUM"
          },
          {
            "url": "https://www.edreams.com/pictures/v6m6xuyu7wc5/1000000/600000/598800/598707/a40f927a_b.jpg",
            "thumbnailUrl": "https://www.edreams.com/pictures/2juqzzyud7e4/1000000/600000/598800/598707/a40f927a_t.jpg",
            "type": "GENERAL",
            "quality": "LOW"
          },
          {
            "url": "https://www.edreams.com/pictures/v99kuxyt9j4w/1000000/600000/598800/598707/48f4b036_z.jpg",
            "thumbnailUrl": "https://www.edreams.com/pictures/48kmvtwy1v63/1000000/600000/598800/598707/48f4b036_t.jpg",
            "type": "ROOM",
            "quality": "MEDIUM"
          },
          {
            "url": "https://www.edreams.com/pictures/x114zxuvstzq/1000000/600000/598800/598707/acd053b6_z.jpg",
            "thumbnailUrl": "https://www.edreams.com/pictures/5z7suwyzy6z7/1000000/600000/598800/598707/acd053b6_t.jpg",
            "type": "ROOM",
            "quality": "MEDIUM"
          },
          {
            "url": "https://www.edreams.com/pictures/x17htvyutfa7/1000000/600000/598800/598707/0c8aa959_z.jpg",
            "thumbnailUrl": "https://www.edreams.com/pictures/1g9axyttkm19/1000000/600000/598800/598707/0c8aa959_t.jpg",
            "type": "GENERAL",
            "quality": "MEDIUM"
          },
          {
            "url": "https://www.edreams.com/pictures/x84gwywwe6vu/1000000/600000/598800/598707/ef0e1eb9_z.jpg",
            "thumbnailUrl": "https://www.edreams.com/pictures/2a19ytyz8v6c/1000000/600000/598800/598707/ef0e1eb9_t.jpg",
            "type": "HOTEL",
            "quality": "MEDIUM"
          },
          {
            "url": "https://www.edreams.com/pictures/xcdvvxyu9583/1000000/600000/598800/598707/f78421fa_b.jpg",
            "thumbnailUrl": "https://www.edreams.com/pictures/3bjguwzzp52n/1000000/600000/598800/598707/f78421fa_t.jpg",
            "type": "GENERAL",
            "quality": "LOW"
          },
          {
            "url": "https://www.edreams.com/pictures/yy45xzyuns3v/1000000/600000/598800/598707/a2dcdf31_b.jpg",
            "thumbnailUrl": "https://www.edreams.com/pictures/ktp8wwuv0vol/1000000/600000/598800/598707/a2dcdf31_t.jpg",
            "type": "HOTEL",
            "quality": "LOW"
          },
          {
            "url": "https://www.edreams.com/pictures/z8v4tzvzez94/1000000/600000/598800/598707/ef555f10_z.jpg",
            "thumbnailUrl": "https://www.edreams.com/pictures/i7k8wuyyn3wj/1000000/600000/598800/598707/ef555f10_t.jpg",
            "type": "HOTEL",
            "quality": "MEDIUM"
          },
          {
            "url": "https://www.edreams.com/pictures/zgn4vtwx043j/1000000/600000/598800/598707/a40f927a_z.jpg",
            "thumbnailUrl": "https://www.edreams.com/pictures/8381vytx24vi/1000000/600000/598800/598707/a40f927a_t.jpg",
            "type": "GENERAL",
            "quality": "MEDIUM"
          },
          {
            "url": "https://www.edreams.com/pictures/zwe8uxwz66x5/1000000/600000/598800/598707/90e61e3e_z.jpg",
            "thumbnailUrl": "https://www.edreams.com/pictures/52m4ttuw6j77/1000000/600000/598800/598707/90e61e3e_t.jpg",
            "type": "GENERAL",
            "quality": "MEDIUM"
          }
        ],
        "accommodationFacilities": [
          {
            "facilityGroup": {
              "code": "G37",
              "description": "Safety features"
            },
            "code": "909",
            "description": "Property confirms they are implementing guest safety measures"
          },
          {
            "facilityGroup": {
              "code": "G1",
              "description": "General"
            },
            "code": "608",
            "description": "Pets not allowed"
          },
          {
            "facilityGroup": {
              "code": "G27",
              "description": "Business facilities"
            },
            "code": "303",
            "description": "Meeting room"
          },
          {
            "facilityGroup": {
              "code": "G6",
              "description": "Media/Technology"
            },
            "code": "107",
            "description": "Free WiFi"
          },
          {
            "facilityGroup": {
              "code": "G3",
              "description": "Services"
            },
            "code": "486",
            "description": "Laundry service"
          },
          {
            "facilityGroup": {
              "code": "G40",
              "description": "Cleanliness and disinfecting"
            },
            "code": "900",
            "description": "Property confirms they are implementing enhanced cleaning measures"
          },
          {
            "facilityGroup": {
              "code": "G23",
              "description": "Front-desk/reception area services"
            },
            "code": "91",
            "description": "Luggage storage"
          },
          {
            "facilityGroup": {
              "code": "G7",
              "description": "Food & Drink"
            },
            "code": "3",
            "description": "Restaurant"
          },
          {
            "facilityGroup": {
              "code": "G27",
              "description": "Business facilities"
            },
            "code": "618",
            "description": "24-hour business center"
          },
          {
            "facilityGroup": {
              "code": "G23",
              "description": "Front-desk/reception area services"
            },
            "code": "8",
            "description": "24-hour reception"
          },
          {
            "facilityGroup": {
              "code": "G37",
              "description": "Safety features"
            },
            "code": "876",
            "description": "Hand sanitizer in guest accommodation and key areas"
          },
          {
            "facilityGroup": {
              "code": "G40",
              "description": "Cleanliness and disinfecting"
            },
            "code": "907",
            "description": "Bed sheets and towels are washed at a temperature of at least 60°C/140°F"
          },
          {
            "facilityGroup": {
              "code": "G39",
              "description": "Physical distancing"
            },
            "code": "881",
            "description": "Physical distancing rules followed"
          },
          {
            "facilityGroup": {
              "code": "G23",
              "description": "Front-desk/reception area services"
            },
            "code": "124",
            "description": "Concierge service"
          },
          {
            "facilityGroup": {
              "code": "G21",
              "description": "Pools and wellness"
            },
            "code": "11",
            "description": "Fitness centre"
          },
          {
            "facilityGroup": {
              "code": "G37",
              "description": "Safety features"
            },
            "code": "892",
            "description": "Face masks for guests available"
          },
          {
            "facilityGroup": {
              "code": "G20",
              "description": "Building characteristics"
            },
            "code": "612",
            "description": "Smoke-free property"
          },
          {
            "facilityGroup": {
              "code": "G23",
              "description": "Front-desk/reception area services"
            },
            "code": "51",
            "description": "Safety deposit box"
          },
          {
            "facilityGroup": {
              "code": "G37",
              "description": "Safety features"
            },
            "code": "906",
            "description": "Staff temperature checks are conducted regularly"
          },
          {
            "facilityGroup": {
              "code": "G40",
              "description": "Cleanliness and disinfecting"
            },
            "code": "893",
            "description": "Property is cleaned with disinfectant"
          },
          {
            "facilityGroup": {
              "code": "G7",
              "description": "Food & Drink"
            },
            "code": "633",
            "description": "Breakfast available (surcharge)"
          },
          {
            "facilityGroup": {
              "code": "G40",
              "description": "Cleanliness and disinfecting"
            },
            "code": "908",
            "description": "Commonly-touched surfaces are cleaned with disinfectant"
          },
          {
            "facilityGroup": {
              "code": "G27",
              "description": "Business facilities"
            },
            "code": "302",
            "description": "Conference facilities"
          },
          {
            "facilityGroup": {
              "code": "G23",
              "description": "Front-desk/reception area services"
            },
            "code": "89",
            "description": "Ticket service"
          },
          {
            "facilityGroup": {
              "code": "G20",
              "description": "Building characteristics"
            },
            "code": "48",
            "description": "Lift"
          },
          {
            "facilityGroup": {
              "code": "G40",
              "description": "Cleanliness and disinfecting"
            },
            "code": "905",
            "description": " gap period enforced between guest stays"
          },
          {
            "facilityGroup": {
              "code": "G37",
              "description": "Safety features"
            },
            "code": "895",
            "description": "Protective clothing is available to guests"
          },
          {
            "facilityGroup": {
              "code": "G39",
              "description": "Physical distancing"
            },
            "code": "883",
            "description": "Screens or physical barriers placed between staff and guests in appropriate areas"
          },
          {
            "facilityGroup": {
              "code": "G22",
              "description": "Transportation"
            },
            "code": "215",
            "description": "Multilingual staff"
          },
          {
            "facilityGroup": {
              "code": "G23",
              "description": "Front-desk/reception area services"
            },
            "code": "13",
            "description": "Newspapers"
          },
          {
            "facilityGroup": {
              "code": "G7",
              "description": "Food & Drink"
            },
            "code": "117",
            "description": "Snack bar"
          },
          {
            "facilityGroup": {
              "code": "G26",
              "description": "Cleaning services"
            },
            "code": "22",
            "description": "Laundry"
          },
          {
            "facilityGroup": {
              "code": "G24",
              "description": "Common areas"
            },
            "code": "143",
            "description": "TV area"
          },
          {
            "facilityGroup": {
              "code": "G7",
              "description": "Food & Drink"
            },
            "code": "7",
            "description": "Bar/lounge"
          },
          {
            "facilityGroup": {
              "code": "G40",
              "description": "Cleanliness and disinfecting"
            },
            "code": "898",
            "description": "Property follows regional sanitization guidelines"
          },
          {
            "facilityGroup": {
              "code": "G1",
              "description": "General"
            },
            "code": "635",
            "description": "Parking (surcharge)"
          },
          {
            "facilityGroup": {
              "code": "G37",
              "description": "Safety features"
            },
            "code": "894",
            "description": "Staff wears personal protective equipment"
          }
        ],
        "accommodationRoomServices": [],
        "numberOfRooms": null,
        "hotelType": "HOTEL"
      }
    }
  }
}
